<?xml version='1.0' encoding='UTF-8' ?>
<svg xmlns='http://www.w3.org/2000/svg' xmlns:xlink='http://www.w3.org/1999/xlink' class='svglite' width='864.00pt' height='576.00pt' viewBox='0 0 864.00 576.00'>
<defs>
  <style type='text/css'><![CDATA[
    .svglite line, .svglite polyline, .svglite polygon, .svglite path, .svglite rect, .svglite circle {
      fill: none;
      stroke: #000000;
      stroke-linecap: round;
      stroke-linejoin: round;
      stroke-miterlimit: 10.00;
    }
  ]]></style>
</defs>
<rect width='100%' height='100%' style='stroke: none; fill: #FFFFFF;'/>
<defs>
  <clipPath id='cpMC4wMHw4NjQuMDB8MC4wMHw1NzYuMDA='>
    <rect x='0.00' y='0.00' width='864.00' height='576.00' />
  </clipPath>
</defs>
<g clip-path='url(#cpMC4wMHw4NjQuMDB8MC4wMHw1NzYuMDA=)'>
</g>
<defs>
  <clipPath id='cpOTguMDJ8NDc1LjUzfDEwOC4wMXw1MjQuNjY='>
    <rect x='98.02' y='108.01' width='377.51' height='416.65' />
  </clipPath>
</defs>
<g clip-path='url(#cpOTguMDJ8NDc1LjUzfDEwOC4wMXw1MjQuNjY=)'>
<polyline points='164.62,524.66 164.62,108.01 ' style='stroke-width: 0.53; stroke: #EBEBEB; stroke-dasharray: 4.00,4.00; stroke-linecap: butt;' />
<polyline points='263.52,524.66 263.52,108.01 ' style='stroke-width: 0.53; stroke: #EBEBEB; stroke-dasharray: 4.00,4.00; stroke-linecap: butt;' />
<polyline points='362.42,524.66 362.42,108.01 ' style='stroke-width: 0.53; stroke: #EBEBEB; stroke-dasharray: 4.00,4.00; stroke-linecap: butt;' />
<polyline points='461.31,524.66 461.31,108.01 ' style='stroke-width: 0.53; stroke: #EBEBEB; stroke-dasharray: 4.00,4.00; stroke-linecap: butt;' />
<polyline points='98.02,465.14 475.53,465.14 ' style='stroke-width: 1.07; stroke: #EBEBEB; stroke-dasharray: 5.69,5.69; stroke-linecap: butt;' />
<polyline points='98.02,365.94 475.53,365.94 ' style='stroke-width: 1.07; stroke: #EBEBEB; stroke-dasharray: 5.69,5.69; stroke-linecap: butt;' />
<polyline points='98.02,266.73 475.53,266.73 ' style='stroke-width: 1.07; stroke: #EBEBEB; stroke-dasharray: 5.69,5.69; stroke-linecap: butt;' />
<polyline points='98.02,167.53 475.53,167.53 ' style='stroke-width: 1.07; stroke: #EBEBEB; stroke-dasharray: 5.69,5.69; stroke-linecap: butt;' />
<polyline points='115.18,524.66 115.18,108.01 ' style='stroke-width: 1.07; stroke: #EBEBEB; stroke-dasharray: 5.69,5.69; stroke-linecap: butt;' />
<polyline points='214.07,524.66 214.07,108.01 ' style='stroke-width: 1.07; stroke: #EBEBEB; stroke-dasharray: 5.69,5.69; stroke-linecap: butt;' />
<polyline points='312.97,524.66 312.97,108.01 ' style='stroke-width: 1.07; stroke: #EBEBEB; stroke-dasharray: 5.69,5.69; stroke-linecap: butt;' />
<polyline points='411.86,524.66 411.86,108.01 ' style='stroke-width: 1.07; stroke: #EBEBEB; stroke-dasharray: 5.69,5.69; stroke-linecap: butt;' />
<line x1='115.18' y1='502.34' x2='328.41' y2='502.34' style='stroke-width: 2.13; stroke: #E69A73; stroke-linecap: butt;' />
<line x1='115.18' y1='477.54' x2='392.84' y2='477.54' style='stroke-width: 2.13; stroke: #B32C1C; stroke-linecap: butt;' />
<line x1='115.18' y1='452.74' x2='382.28' y2='452.74' style='stroke-width: 2.13; stroke: #0C9DAE; stroke-linecap: butt;' />
<line x1='115.18' y1='427.94' x2='353.59' y2='427.94' style='stroke-width: 2.13; stroke: #286099; stroke-linecap: butt;' />
<line x1='115.18' y1='403.14' x2='326.68' y2='403.14' style='stroke-width: 2.13; stroke: #E69A73; stroke-linecap: butt;' />
<line x1='115.18' y1='378.34' x2='376.92' y2='378.34' style='stroke-width: 2.13; stroke: #B32C1C; stroke-linecap: butt;' />
<line x1='115.18' y1='353.53' x2='379.38' y2='353.53' style='stroke-width: 2.13; stroke: #0C9DAE; stroke-linecap: butt;' />
<line x1='115.18' y1='328.73' x2='377.56' y2='328.73' style='stroke-width: 2.13; stroke: #286099; stroke-linecap: butt;' />
<line x1='115.18' y1='303.93' x2='254.66' y2='303.93' style='stroke-width: 2.13; stroke: #E69A73; stroke-linecap: butt;' />
<line x1='115.18' y1='279.13' x2='273.67' y2='279.13' style='stroke-width: 2.13; stroke: #B32C1C; stroke-linecap: butt;' />
<line x1='115.18' y1='254.33' x2='287.17' y2='254.33' style='stroke-width: 2.13; stroke: #0C9DAE; stroke-linecap: butt;' />
<line x1='115.18' y1='229.53' x2='299.77' y2='229.53' style='stroke-width: 2.13; stroke: #286099; stroke-linecap: butt;' />
<line x1='115.18' y1='204.73' x2='246.45' y2='204.73' style='stroke-width: 2.13; stroke: #E69A73; stroke-linecap: butt;' />
<line x1='115.18' y1='179.93' x2='283.92' y2='179.93' style='stroke-width: 2.13; stroke: #B32C1C; stroke-linecap: butt;' />
<line x1='115.18' y1='155.13' x2='317.38' y2='155.13' style='stroke-width: 2.13; stroke: #0C9DAE; stroke-linecap: butt;' />
<line x1='115.18' y1='130.33' x2='303.91' y2='130.33' style='stroke-width: 2.13; stroke: #286099; stroke-linecap: butt;' />
<circle cx='328.41' cy='502.34' r='4.62' style='stroke-width: 0.71; stroke: #E69A73; stroke-opacity: 0.70; fill: #E69A73; fill-opacity: 0.70;' />
<circle cx='392.84' cy='477.54' r='4.62' style='stroke-width: 0.71; stroke: #B32C1C; stroke-opacity: 0.70; fill: #B32C1C; fill-opacity: 0.70;' />
<circle cx='382.28' cy='452.74' r='4.62' style='stroke-width: 0.71; stroke: #0C9DAE; stroke-opacity: 0.70; fill: #0C9DAE; fill-opacity: 0.70;' />
<circle cx='353.59' cy='427.94' r='4.62' style='stroke-width: 0.71; stroke: #286099; stroke-opacity: 0.70; fill: #286099; fill-opacity: 0.70;' />
<circle cx='326.68' cy='403.14' r='4.62' style='stroke-width: 0.71; stroke: #E69A73; stroke-opacity: 0.70; fill: #E69A73; fill-opacity: 0.70;' />
<circle cx='376.92' cy='378.34' r='4.62' style='stroke-width: 0.71; stroke: #B32C1C; stroke-opacity: 0.70; fill: #B32C1C; fill-opacity: 0.70;' />
<circle cx='379.38' cy='353.53' r='4.62' style='stroke-width: 0.71; stroke: #0C9DAE; stroke-opacity: 0.70; fill: #0C9DAE; fill-opacity: 0.70;' />
<circle cx='377.56' cy='328.73' r='4.62' style='stroke-width: 0.71; stroke: #286099; stroke-opacity: 0.70; fill: #286099; fill-opacity: 0.70;' />
<circle cx='254.66' cy='303.93' r='4.62' style='stroke-width: 0.71; stroke: #E69A73; stroke-opacity: 0.70; fill: #E69A73; fill-opacity: 0.70;' />
<circle cx='273.67' cy='279.13' r='4.62' style='stroke-width: 0.71; stroke: #B32C1C; stroke-opacity: 0.70; fill: #B32C1C; fill-opacity: 0.70;' />
<circle cx='287.17' cy='254.33' r='4.62' style='stroke-width: 0.71; stroke: #0C9DAE; stroke-opacity: 0.70; fill: #0C9DAE; fill-opacity: 0.70;' />
<circle cx='299.77' cy='229.53' r='4.62' style='stroke-width: 0.71; stroke: #286099; stroke-opacity: 0.70; fill: #286099; fill-opacity: 0.70;' />
<circle cx='246.45' cy='204.73' r='4.62' style='stroke-width: 0.71; stroke: #E69A73; stroke-opacity: 0.70; fill: #E69A73; fill-opacity: 0.70;' />
<circle cx='283.92' cy='179.93' r='4.62' style='stroke-width: 0.71; stroke: #B32C1C; stroke-opacity: 0.70; fill: #B32C1C; fill-opacity: 0.70;' />
<circle cx='317.38' cy='155.13' r='4.62' style='stroke-width: 0.71; stroke: #0C9DAE; stroke-opacity: 0.70; fill: #0C9DAE; fill-opacity: 0.70;' />
<circle cx='303.91' cy='130.33' r='4.62' style='stroke-width: 0.71; stroke: #286099; stroke-opacity: 0.70; fill: #286099; fill-opacity: 0.70;' />
</g>
<g clip-path='url(#cpMC4wMHw4NjQuMDB8MC4wMHw1NzYuMDA=)'>
</g>
<defs>
  <clipPath id='cpNDgxLjAxfDg1OC41MnwxMDguMDF8NTI0LjY2'>
    <rect x='481.01' y='108.01' width='377.51' height='416.65' />
  </clipPath>
</defs>
<g clip-path='url(#cpNDgxLjAxfDg1OC41MnwxMDguMDF8NTI0LjY2)'>
<polyline points='547.62,524.66 547.62,108.01 ' style='stroke-width: 0.53; stroke: #EBEBEB; stroke-dasharray: 4.00,4.00; stroke-linecap: butt;' />
<polyline points='646.51,524.66 646.51,108.01 ' style='stroke-width: 0.53; stroke: #EBEBEB; stroke-dasharray: 4.00,4.00; stroke-linecap: butt;' />
<polyline points='745.41,524.66 745.41,108.01 ' style='stroke-width: 0.53; stroke: #EBEBEB; stroke-dasharray: 4.00,4.00; stroke-linecap: butt;' />
<polyline points='844.30,524.66 844.30,108.01 ' style='stroke-width: 0.53; stroke: #EBEBEB; stroke-dasharray: 4.00,4.00; stroke-linecap: butt;' />
<polyline points='481.01,465.14 858.52,465.14 ' style='stroke-width: 1.07; stroke: #EBEBEB; stroke-dasharray: 5.69,5.69; stroke-linecap: butt;' />
<polyline points='481.01,365.94 858.52,365.94 ' style='stroke-width: 1.07; stroke: #EBEBEB; stroke-dasharray: 5.69,5.69; stroke-linecap: butt;' />
<polyline points='481.01,266.73 858.52,266.73 ' style='stroke-width: 1.07; stroke: #EBEBEB; stroke-dasharray: 5.69,5.69; stroke-linecap: butt;' />
<polyline points='481.01,167.53 858.52,167.53 ' style='stroke-width: 1.07; stroke: #EBEBEB; stroke-dasharray: 5.69,5.69; stroke-linecap: butt;' />
<polyline points='498.17,524.66 498.17,108.01 ' style='stroke-width: 1.07; stroke: #EBEBEB; stroke-dasharray: 5.69,5.69; stroke-linecap: butt;' />
<polyline points='597.06,524.66 597.06,108.01 ' style='stroke-width: 1.07; stroke: #EBEBEB; stroke-dasharray: 5.69,5.69; stroke-linecap: butt;' />
<polyline points='695.96,524.66 695.96,108.01 ' style='stroke-width: 1.07; stroke: #EBEBEB; stroke-dasharray: 5.69,5.69; stroke-linecap: butt;' />
<polyline points='794.85,524.66 794.85,108.01 ' style='stroke-width: 1.07; stroke: #EBEBEB; stroke-dasharray: 5.69,5.69; stroke-linecap: butt;' />
<line x1='498.17' y1='502.34' x2='769.14' y2='502.34' style='stroke-width: 2.13; stroke: #E69A73; stroke-linecap: butt;' />
<line x1='498.17' y1='477.54' x2='829.35' y2='477.54' style='stroke-width: 2.13; stroke: #B32C1C; stroke-linecap: butt;' />
<line x1='498.17' y1='452.74' x2='841.36' y2='452.74' style='stroke-width: 2.13; stroke: #0C9DAE; stroke-linecap: butt;' />
<line x1='498.17' y1='427.94' x2='823.69' y2='427.94' style='stroke-width: 2.13; stroke: #286099; stroke-linecap: butt;' />
<line x1='498.17' y1='403.14' x2='769.11' y2='403.14' style='stroke-width: 2.13; stroke: #E69A73; stroke-linecap: butt;' />
<line x1='498.17' y1='378.34' x2='799.56' y2='378.34' style='stroke-width: 2.13; stroke: #B32C1C; stroke-linecap: butt;' />
<line x1='498.17' y1='353.53' x2='797.33' y2='353.53' style='stroke-width: 2.13; stroke: #0C9DAE; stroke-linecap: butt;' />
<line x1='498.17' y1='328.73' x2='790.53' y2='328.73' style='stroke-width: 2.13; stroke: #286099; stroke-linecap: butt;' />
<line x1='498.17' y1='303.93' x2='649.90' y2='303.93' style='stroke-width: 2.13; stroke: #E69A73; stroke-linecap: butt;' />
<line x1='498.17' y1='279.13' x2='666.87' y2='279.13' style='stroke-width: 2.13; stroke: #B32C1C; stroke-linecap: butt;' />
<line x1='498.17' y1='254.33' x2='684.61' y2='254.33' style='stroke-width: 2.13; stroke: #0C9DAE; stroke-linecap: butt;' />
<line x1='498.17' y1='229.53' x2='703.01' y2='229.53' style='stroke-width: 2.13; stroke: #286099; stroke-linecap: butt;' />
<line x1='498.17' y1='204.73' x2='624.07' y2='204.73' style='stroke-width: 2.13; stroke: #E69A73; stroke-linecap: butt;' />
<line x1='498.17' y1='179.93' x2='643.43' y2='179.93' style='stroke-width: 2.13; stroke: #B32C1C; stroke-linecap: butt;' />
<line x1='498.17' y1='155.13' x2='659.03' y2='155.13' style='stroke-width: 2.13; stroke: #0C9DAE; stroke-linecap: butt;' />
<line x1='498.17' y1='130.33' x2='672.92' y2='130.33' style='stroke-width: 2.13; stroke: #286099; stroke-linecap: butt;' />
<circle cx='769.14' cy='502.34' r='4.62' style='stroke-width: 0.71; stroke: #E69A73; stroke-opacity: 0.70; fill: #E69A73; fill-opacity: 0.70;' />
<circle cx='829.35' cy='477.54' r='4.62' style='stroke-width: 0.71; stroke: #B32C1C; stroke-opacity: 0.70; fill: #B32C1C; fill-opacity: 0.70;' />
<circle cx='841.36' cy='452.74' r='4.62' style='stroke-width: 0.71; stroke: #0C9DAE; stroke-opacity: 0.70; fill: #0C9DAE; fill-opacity: 0.70;' />
<circle cx='823.69' cy='427.94' r='4.62' style='stroke-width: 0.71; stroke: #286099; stroke-opacity: 0.70; fill: #286099; fill-opacity: 0.70;' />
<circle cx='769.11' cy='403.14' r='4.62' style='stroke-width: 0.71; stroke: #E69A73; stroke-opacity: 0.70; fill: #E69A73; fill-opacity: 0.70;' />
<circle cx='799.56' cy='378.34' r='4.62' style='stroke-width: 0.71; stroke: #B32C1C; stroke-opacity: 0.70; fill: #B32C1C; fill-opacity: 0.70;' />
<circle cx='797.33' cy='353.53' r='4.62' style='stroke-width: 0.71; stroke: #0C9DAE; stroke-opacity: 0.70; fill: #0C9DAE; fill-opacity: 0.70;' />
<circle cx='790.53' cy='328.73' r='4.62' style='stroke-width: 0.71; stroke: #286099; stroke-opacity: 0.70; fill: #286099; fill-opacity: 0.70;' />
<circle cx='649.90' cy='303.93' r='4.62' style='stroke-width: 0.71; stroke: #E69A73; stroke-opacity: 0.70; fill: #E69A73; fill-opacity: 0.70;' />
<circle cx='666.87' cy='279.13' r='4.62' style='stroke-width: 0.71; stroke: #B32C1C; stroke-opacity: 0.70; fill: #B32C1C; fill-opacity: 0.70;' />
<circle cx='684.61' cy='254.33' r='4.62' style='stroke-width: 0.71; stroke: #0C9DAE; stroke-opacity: 0.70; fill: #0C9DAE; fill-opacity: 0.70;' />
<circle cx='703.01' cy='229.53' r='4.62' style='stroke-width: 0.71; stroke: #286099; stroke-opacity: 0.70; fill: #286099; fill-opacity: 0.70;' />
<circle cx='624.07' cy='204.73' r='4.62' style='stroke-width: 0.71; stroke: #E69A73; stroke-opacity: 0.70; fill: #E69A73; fill-opacity: 0.70;' />
<circle cx='643.43' cy='179.93' r='4.62' style='stroke-width: 0.71; stroke: #B32C1C; stroke-opacity: 0.70; fill: #B32C1C; fill-opacity: 0.70;' />
<circle cx='659.03' cy='155.13' r='4.62' style='stroke-width: 0.71; stroke: #0C9DAE; stroke-opacity: 0.70; fill: #0C9DAE; fill-opacity: 0.70;' />
<circle cx='672.92' cy='130.33' r='4.62' style='stroke-width: 0.71; stroke: #286099; stroke-opacity: 0.70; fill: #286099; fill-opacity: 0.70;' />
</g>
<g clip-path='url(#cpMC4wMHw4NjQuMDB8MC4wMHw1NzYuMDA=)'>
</g>
<defs>
  <clipPath id='cpOTguMDJ8NDc1LjUzfDg4LjM0fDEwOC4wMQ=='>
    <rect x='98.02' y='88.34' width='377.51' height='19.67' />
  </clipPath>
</defs>
<g clip-path='url(#cpOTguMDJ8NDc1LjUzfDg4LjM0fDEwOC4wMQ==)'>
<text x='286.77' y='102.37' text-anchor='middle' style='font-size: 12.00px; font-weight: bold; fill: #1A1A1A; font-family: Barlow Condensed;' textLength='93.39px' lengthAdjust='spacingAndGlyphs'>No vive con su pareja</text>
</g>
<g clip-path='url(#cpMC4wMHw4NjQuMDB8MC4wMHw1NzYuMDA=)'>
</g>
<defs>
  <clipPath id='cpNDgxLjAxfDg1OC41Mnw4OC4zNHwxMDguMDE='>
    <rect x='481.01' y='88.34' width='377.51' height='19.67' />
  </clipPath>
</defs>
<g clip-path='url(#cpNDgxLjAxfDg1OC41Mnw4OC4zNHwxMDguMDE=)'>
<text x='669.76' y='102.37' text-anchor='middle' style='font-size: 12.00px; font-weight: bold; fill: #1A1A1A; font-family: Barlow Condensed;' textLength='80.14px' lengthAdjust='spacingAndGlyphs'>Vive con su pareja</text>
</g>
<g clip-path='url(#cpMC4wMHw4NjQuMDB8MC4wMHw1NzYuMDA=)'>
<text x='115.18' y='537.99' text-anchor='middle' style='font-size: 12.00px; font-weight: bold; fill: #4D4D4D; font-family: Barlow Condensed;' textLength='5.44px' lengthAdjust='spacingAndGlyphs'>0</text>
<text x='214.07' y='537.99' text-anchor='middle' style='font-size: 12.00px; font-weight: bold; fill: #4D4D4D; font-family: Barlow Condensed;' textLength='10.53px' lengthAdjust='spacingAndGlyphs'>25</text>
<text x='312.97' y='537.99' text-anchor='middle' style='font-size: 12.00px; font-weight: bold; fill: #4D4D4D; font-family: Barlow Condensed;' textLength='10.71px' lengthAdjust='spacingAndGlyphs'>50</text>
<text x='411.86' y='537.99' text-anchor='middle' style='font-size: 12.00px; font-weight: bold; fill: #4D4D4D; font-family: Barlow Condensed;' textLength='10.15px' lengthAdjust='spacingAndGlyphs'>75</text>
<text x='498.17' y='537.99' text-anchor='middle' style='font-size: 12.00px; font-weight: bold; fill: #4D4D4D; font-family: Barlow Condensed;' textLength='5.44px' lengthAdjust='spacingAndGlyphs'>0</text>
<text x='597.06' y='537.99' text-anchor='middle' style='font-size: 12.00px; font-weight: bold; fill: #4D4D4D; font-family: Barlow Condensed;' textLength='10.53px' lengthAdjust='spacingAndGlyphs'>25</text>
<text x='695.96' y='537.99' text-anchor='middle' style='font-size: 12.00px; font-weight: bold; fill: #4D4D4D; font-family: Barlow Condensed;' textLength='10.71px' lengthAdjust='spacingAndGlyphs'>50</text>
<text x='794.85' y='537.99' text-anchor='middle' style='font-size: 12.00px; font-weight: bold; fill: #4D4D4D; font-family: Barlow Condensed;' textLength='10.15px' lengthAdjust='spacingAndGlyphs'>75</text>
<text x='93.09' y='469.34' text-anchor='end' style='font-size: 12.00px; font-weight: bold; fill: #4D4D4D; font-family: Barlow Condensed;' textLength='62.18px' lengthAdjust='spacingAndGlyphs'>Mujer sin hijes</text>
<text x='93.09' y='370.14' text-anchor='end' style='font-size: 12.00px; font-weight: bold; fill: #4D4D4D; font-family: Barlow Condensed;' textLength='26.39px' lengthAdjust='spacingAndGlyphs'>Madre</text>
<text x='93.09' y='270.93' text-anchor='end' style='font-size: 12.00px; font-weight: bold; fill: #4D4D4D; font-family: Barlow Condensed;' textLength='72.14px' lengthAdjust='spacingAndGlyphs'>Hombre sin hijes</text>
<text x='93.09' y='171.73' text-anchor='end' style='font-size: 12.00px; font-weight: bold; fill: #4D4D4D; font-family: Barlow Condensed;' textLength='25.39px' lengthAdjust='spacingAndGlyphs'>Padre</text>
<line x1='307.78' y1='70.17' x2='307.78' y2='56.35' style='stroke-width: 2.13; stroke: #E69A73; stroke-linecap: butt;' />
<circle cx='307.78' cy='63.26' r='4.62' style='stroke-width: 0.71; stroke: #E69A73; stroke-opacity: 0.70; fill: #E69A73; fill-opacity: 0.70;' />
<line x1='411.00' y1='70.17' x2='411.00' y2='56.35' style='stroke-width: 2.13; stroke: #B32C1C; stroke-linecap: butt;' />
<circle cx='411.00' cy='63.26' r='4.62' style='stroke-width: 0.71; stroke: #B32C1C; stroke-opacity: 0.70; fill: #B32C1C; fill-opacity: 0.70;' />
<line x1='488.09' y1='70.17' x2='488.09' y2='56.35' style='stroke-width: 2.13; stroke: #0C9DAE; stroke-linecap: butt;' />
<circle cx='488.09' cy='63.26' r='4.62' style='stroke-width: 0.71; stroke: #0C9DAE; stroke-opacity: 0.70; fill: #0C9DAE; fill-opacity: 0.70;' />
<line x1='570.71' y1='70.17' x2='570.71' y2='56.35' style='stroke-width: 2.13; stroke: #286099; stroke-linecap: butt;' />
<circle cx='570.71' cy='63.26' r='4.62' style='stroke-width: 0.71; stroke: #286099; stroke-opacity: 0.70; fill: #286099; fill-opacity: 0.70;' />
<text x='323.40' y='67.46' style='font-size: 12.00px; fill: #595959; font-family: Barlow Condensed;' textLength='71.99px' lengthAdjust='spacingAndGlyphs'>Primaria o menos</text>
<text x='426.62' y='67.46' style='font-size: 12.00px; fill: #595959; font-family: Barlow Condensed;' textLength='45.86px' lengthAdjust='spacingAndGlyphs'>Secundaria</text>
<text x='503.71' y='67.46' style='font-size: 12.00px; fill: #595959; font-family: Barlow Condensed;' textLength='51.39px' lengthAdjust='spacingAndGlyphs'>Preparatoria</text>
<text x='586.32' y='67.46' style='font-size: 12.00px; fill: #595959; font-family: Barlow Condensed;' textLength='78.05px' lengthAdjust='spacingAndGlyphs'>Licenciatura o más</text>
<text x='478.27' y='40.33' text-anchor='middle' style='font-size: 16.00px; font-weight: bold; fill: #666666; font-family: Barlow Condensed;' textLength='188.99px' lengthAdjust='spacingAndGlyphs'>Según sexo y situación conyugal</text>
<text x='478.27' y='19.48' text-anchor='middle' style='font-size: 20.00px; font-weight: bold; font-family: Barlow Condensed;' textLength='458.73px' lengthAdjust='spacingAndGlyphs'>Horas promedio semanales de trabajo doméstico y de cuidados</text>
<text x='98.02' y='568.44' style='font-size: 10.00px; font-style: italic; fill: #595959; font-family: Barlow Condensed;' textLength='257.01px' lengthAdjust='spacingAndGlyphs'>Fuente: Elaboración propia a partir de la Encuesta Nacional de Uso de Tiempo</text>
</g>
</svg>
